<?xml version="1.0" encoding="UTF-8" standalone="no"?>
<svg
   xmlns:dc="http://purl.org/dc/elements/1.1/"
   xmlns:cc="http://creativecommons.org/ns#"
   xmlns:rdf="http://www.w3.org/1999/02/22-rdf-syntax-ns#"
   xmlns:svg="http://www.w3.org/2000/svg"
   xmlns="http://www.w3.org/2000/svg"
   xmlns:sodipodi="http://sodipodi.sourceforge.net/DTD/sodipodi-0.dtd"
   xmlns:inkscape="http://www.inkscape.org/namespaces/inkscape"
   width="100mm"
   height="100mm"
   viewBox="0 0 566.90037 566.89935"
   version="1.1"
   id="svg773"
   sodipodi:docname="gnome.svg"
   inkscape:version="1.0.1 (3bc2e813f5, 2020-09-07)">
  <metadata
     id="metadata779">
    <rdf:RDF>
      <cc:Work
         rdf:about="">
        <dc:format>image/svg+xml</dc:format>
        <dc:type
           rdf:resource="http://purl.org/dc/dcmitype/StillImage" />
        <dc:title></dc:title>
      </cc:Work>
    </rdf:RDF>
  </metadata>
  <defs
     id="defs777" />
  <sodipodi:namedview
     pagecolor="#ffffff"
     bordercolor="#666666"
     borderopacity="1"
     objecttolerance="10"
     gridtolerance="10"
     guidetolerance="10"
     inkscape:pageopacity="0"
     inkscape:pageshadow="2"
     inkscape:window-width="3840"
     inkscape:window-height="2066"
     id="namedview775"
     showgrid="false"
     inkscape:zoom="2.5323972"
     inkscape:cx="543.48122"
     inkscape:cy="350.0876"
     inkscape:window-x="-11"
     inkscape:window-y="-11"
     inkscape:window-maximized="1"
     inkscape:current-layer="svg773"
     inkscape:document-rotation="0" />
  <path
     id="Sélection #3"
     fill="none"
     stroke="#000000"
     stroke-width="0.729"
     d="m 314.66333,131.32551 c 9.38223,-0.46656 9.3312,-5.29983 13.35528,-7.83675 2.7702,-1.74231 11.52549,-2.7702 15.07572,-3.29508 1.79334,-0.26244 5.70807,-1.07163 7.29,-0.93312 1.3122,0.11664 2.4057,0.62694 3.645,0.97686 9.67383,2.73375 8.18667,3.20031 16.70139,8.50743 5.59872,3.4992 2.81394,4.7385 11.00061,4.76766 -0.53217,2.34738 -2.35467,6.37146 -0.85293,8.43453 0.92583,1.28304 4.38129,2.45673 5.95593,3.22947 0,0 -6.561,3.645 -6.561,3.645 2.4057,2.89413 10.03104,5.35815 3.60126,9.28746 0,0 -2.14326,0.91854 -2.14326,0.91854 0,0 5.103,4.374 5.103,4.374 0,0 -6.561,0 -6.561,0 -0.34992,5.52582 2.07765,5.89032 6.561,8.019 0,0 0,1.458 0,1.458 -4.79682,1.05705 -6.38604,-0.0583 -10.206,-2.916 0,0 -0.729,10.206 -0.729,10.206 11.67129,0 13.71978,-1.04247 24.057,-6.86718 2.1141,-1.19556 6.75054,-4.50522 9.06147,-2.61711 1.10808,0.91125 1.77876,10.72359 2.34738,13.12929 0,0 7.40664,24.05699 7.40664,24.05699 0,0 -3.38256,15.309 -3.38256,15.309 -0.81648,2.37654 -2.52234,4.65102 -2.05578,7.29 0.43011,2.42028 4.39587,7.10046 5.91219,9.477 1.93914,3.04722 2.44944,5.103 4.92075,8.019 0,0 6.16734,6.561 6.16734,6.561 1.56006,1.90269 6.85989,10.81836 7.22439,13.122 0.54675,3.36798 -2.09952,12.13785 -3.68145,15.33816 0,0 -3.71061,5.80284 -3.71061,5.80284 0,0 -2.54421,6.561 -2.54421,6.561 0,0 -9.01773,12.393 -9.01773,12.393 -1.72773,2.20887 -5.6862,7.40664 -7.83675,8.79903 0,0 -4.25007,1.8954 -4.25007,1.8954 -7.82946,3.81996 -4.57083,2.53692 -13.122,4.02408 -4.82598,0.83835 -6.99111,-1.30491 -10.46115,3.51378 -4.51251,6.24753 -1.7496,7.97526 1.14453,12.69189 1.51632,2.47131 1.0206,2.63169 3.44088,5.49666 4.24278,5.02281 8.87193,5.13216 9.45513,14.60916 0.55404,9.06876 -3.17844,11.52549 -11.59839,9.477 -1.44342,5.91948 -0.76545,11.86812 1.52361,17.496 1.64025,4.01679 3.21489,4.87701 4.30839,9.477 0,0 -9.477,1.3851 -9.477,1.3851 0,0 -10.935,4.4469 -10.935,4.4469 0,0 5.13945,16.767 5.13945,16.767 0,0 4.89159,13.851 4.89159,13.851 0,0 2.03391,15.24339 2.03391,15.24339 0,0 1.71315,2.98161 1.71315,2.98161 -4.39587,4.86243 1.29762,3.53565 0,13.122 0,0 -3.85641,13.851 -3.85641,13.851 -1.28304,7.27542 0.64152,17.58348 4.16259,24.057 3.27321,6.01425 13.88745,12.1014 13.43547,18.92484 -0.30618,4.68018 -7.37019,4.39587 -10.75275,4.40316 0,0 -23.328,-2.15784 -23.328,-2.15784 -4.05324,0.17496 -7.03485,2.15784 -10.935,2.88684 2.57337,-11.43072 0.27702,-6.69222 -0.48843,-16.038 -0.25515,-3.12012 0.91854,-4.78224 0.54675,-6.49539 -0.56862,-2.60253 -3.98034,-3.73248 -3.83454,-6.62661 0.19683,-3.80538 5.95593,-6.10173 6.22566,-9.50616 0,0 -6.89634,-18.92484 -6.89634,-18.92484 0,0 -0.99873,-5.82471 -0.99873,-5.82471 -1.10808,-5.05197 -1.83708,-2.17971 -1.84437,-9.48429 -0.007,-5.95593 2.45673,-11.76606 1.17369,-17.496 -0.73629,-3.27321 -4.35213,-7.95339 -6.24024,-10.935 -2.54421,-4.02408 -4.38858,-7.08588 -5.84658,-11.664 -0.85293,-2.68272 -1.61838,-7.27542 -3.41172,-9.30933 -1.61109,-1.8225 -3.97305,-1.76418 -6.08715,-2.65356 0,0 -4.374,-2.01204 -4.374,-2.01204 -5.37273,-1.87353 -12.99807,-1.61838 -17.29917,2.59524 -1.7496,1.71315 -2.35467,4.10427 -3.33882,6.27669 -2.44215,5.3946 -4.52709,8.22312 -4.11156,14.57271 0.23328,3.50649 1.75689,4.49793 2.08494,9.48429 0.2916,4.4469 -1.11537,12.53151 -2.63169,16.767 -2.28906,6.42978 -4.75308,9.09792 -8.00442,14.58 0,0 -3.01806,6.561 -3.01806,6.561 -2.87955,5.41647 -4.41774,3.22218 -4.50522,10.206 2.47131,0.38637 3.4992,0.69255 5.832,1.6038 0,0 4.35942,1.84437 4.35942,1.84437 2.32551,1.12266 5.51853,4.23549 2.51505,6.6339 -2.16513,1.72044 -10.51218,0.0437 -11.0808,6.68493 0,0 2.99619,18.954 2.99619,18.954 0.13122,2.04849 0.23328,5.79555 -1.93185,6.8526 -1.18827,0.5832 -4.76766,0.40824 -6.33501,0.48114 -7.49412,0.78732 -5.94864,-0.0146 -12.39301,0 0,0 -10.935,0 -10.935,0 0,0 -18.954,-1.50174 -18.954,-1.50174 0,0 -36.45,0 -36.45,0 0,-7.03485 -0.92583,-7.15878 3.95847,-12.40758 1.26117,-1.36323 2.2599,-2.52234 4.06053,-3.19302 1.73502,-0.64881 6.31314,-0.10206 12.393,-2.29635 4.31568,-1.55277 8.63136,-5.04468 12.393,-7.72011 0,0 6.33501,-4.54896 6.33501,-4.54896 3.41901,-3.65229 -0.0802,-6.561 1.68399,-12.84498 1.55277,0.45198 3.50649,1.05705 5.103,1.21014 10.98603,1.08621 10.02375,-8.90109 12.58254,-15.79014 1.26117,-3.40443 3.3534,-4.57812 4.374,-7.29 0.73629,-1.95372 0.5103,-5.14674 0.53946,-7.29 0.12393,-7.41393 2.39841,-1.92456 2.187,-13.851 -0.10206,-5.41647 -1.36323,-4.06782 -2.1141,-8.04816 -1.32678,-7.06401 -1.54548,-12.5388 -1.5309,-19.65384 0.007,-3.01077 0.0292,-6.50997 1.34136,-9.28746 0,0 2.22345,-3.29508 2.22345,-3.29508 0,0 3.25135,-9.28746 3.25135,-9.28746 0.051,-4.19175 -6.07987,-4.25736 -5.15404,-8.05545 0.41553,-1.73502 3.20031,-4.92804 4.35943,-6.52455 2.51505,-3.49191 4.89888,-7.1442 6.93279,-10.935 2.61711,-4.87701 5.19048,-10.1331 7.15149,-15.309 1.21014,-3.21489 1.21743,-6.0507 4.68018,-7.29 -0.0948,-7.53786 -2.36196,-5.40189 -3.34611,-10.206 -0.26973,-1.3122 1.10079,-13.06368 1.55277,-14.45607 0.72171,-2.19429 3.06909,-5.34357 4.77495,-6.87447 1.7496,-1.56006 4.62186,-3.4263 3.7908,-6.24024 -0.50301,-1.72044 -3.84183,-3.90744 -5.2488,-5.29983 0,0 -4.50522,-5.03739 -4.50522,-5.03739 -4.03137,-4.33755 -6.32043,-5.36544 -6.4881,-11.664 -0.051,-1.9683 -0.16767,-4.78953 0.73629,-6.55371 2.02662,-3.95118 10.6434,-8.08461 13.56669,-12.40029 2.98161,-4.41045 -3.67416,-6.84531 -1.50174,-12.18888 0.70713,-1.73502 3.87099,-4.41045 5.26338,-6.03612 2.80665,-3.26592 6.59016,-9.64467 7.44309,-13.851 -4.90617,1.52361 -8.71155,10.14768 -11.75877,11.5911 -1.18098,0.45927 -2.3328,0.18954 -3.55023,0 0,0 0,-2.8431 0,-2.8431 0,0 -9.477,8.019 -9.477,8.019 2.25261,-9.49887 8.31789,-9.44055 5.832,-19.683 0,0 -1.458,0 -1.458,0 -1.39968,3.82725 -3.52107,8.98128 -6.561,11.664 0,0 -0.729,-6.561 -0.729,-6.561 -7.19523,5.54769 -1.18827,6.94008 -8.74801,10.935 0.0802,-8.18667 2.35468,-7.39935 5.10301,-14.58 0,0 -4.37401,-2.187 -4.37401,-2.187 -1.50903,4.11156 -3.60126,10.11123 -8.748,9.477 2.05578,-5.77368 5.43105,-4.67289 5.103,-10.935 0,0 -5.103,1.458 -5.103,1.458 0,0 7.29,-16.038 7.29,-16.038 0,0 -0.729,-0.729 -0.729,-0.729 0,0 -3.645,0.729 -3.645,0.729 1.28304,-7.93881 7.76386,-6.42249 11.12455,-11.69316 1.93185,-3.03992 0.32805,-5.43833 -1.53819,-4.82597 -2.55879,0.83835 -1.53819,3.98762 -6.67036,5.58413 0.53946,-9.6884 6.58288,-9.22913 9.68113,-13.27508 1.39239,-1.8225 4.38858,-10.10394 11.45988,-13.38444 3.82725,-1.77147 12.07224,-0.28431 17.34291,-5.56956 1.69857,-1.70586 3.55023,-4.54896 1.87353,-6.8526 -1.39968,-1.93185 -6.91092,-3.41901 -4.18446,-7.44309 2.85039,-4.19904 11.63484,-5.33628 16.31502,-6.69222 -1.66212,-4.85514 -0.64881,-6.11631 0,-10.935 z m -48.114,79.46099 c 0,0 -2.91601,2.187 -2.91601,2.187 0,0 2.91601,-2.187 2.91601,-2.187 z m 24.786,5.832 c 0,0 -1.458,5.832 -1.458,5.832 2.63169,-1.76418 2.23074,-2.98161 1.458,-5.832 z"
     style="fill:#000000;stroke:none" />
</svg>
