<?xml version="1.0" encoding="UTF-8" standalone="no"?>
<svg
   xmlns:dc="http://purl.org/dc/elements/1.1/"
   xmlns:cc="http://creativecommons.org/ns#"
   xmlns:rdf="http://www.w3.org/1999/02/22-rdf-syntax-ns#"
   xmlns:svg="http://www.w3.org/2000/svg"
   xmlns="http://www.w3.org/2000/svg"
   xmlns:sodipodi="http://sodipodi.sourceforge.net/DTD/sodipodi-0.dtd"
   xmlns:inkscape="http://www.inkscape.org/namespaces/inkscape"
   width="100mm"
   height="100mm"
   viewBox="0 0 566.90041 566.9"
   version="1.1"
   id="svg1754"
   sodipodi:docname="sagouin.svg"
   inkscape:version="1.0.1 (3bc2e813f5, 2020-09-07)">
  <metadata
     id="metadata1760">
    <rdf:RDF>
      <cc:Work
         rdf:about="">
        <dc:format>image/svg+xml</dc:format>
        <dc:type
           rdf:resource="http://purl.org/dc/dcmitype/StillImage" />
        <dc:title></dc:title>
      </cc:Work>
    </rdf:RDF>
  </metadata>
  <defs
     id="defs1758" />
  <sodipodi:namedview
     pagecolor="#ffffff"
     bordercolor="#666666"
     borderopacity="1"
     objecttolerance="10"
     gridtolerance="10"
     guidetolerance="10"
     inkscape:pageopacity="0"
     inkscape:pageshadow="2"
     inkscape:window-width="3840"
     inkscape:window-height="2066"
     id="namedview1756"
     showgrid="false"
     inkscape:zoom="1.8567703"
     inkscape:cx="851.78633"
     inkscape:cy="355.89351"
     inkscape:window-x="-11"
     inkscape:window-y="-11"
     inkscape:window-maximized="1"
     inkscape:current-layer="svg1754"
     inkscape:document-rotation="0" />
  <path
     id="Sélection #1"
     fill="none"
     stroke="black"
     stroke-width="0.59049"
     d="m 238.92251,57.200229 c 2.04309,0.501916 12.16999,5.92852 14.01232,7.292551 2.66901,1.978142 0.92117,3.094168 6.7493,3.926759 -0.0709,0.744017 -0.10038,1.612038 0,2.33834 1.4408,5.019166 7.13902,0.395629 9.57775,2.39739 1.51756,1.245934 -0.34248,4.251528 2.20253,4.74754 2.72216,0.531441 3.89133,-3.318554 8.7924,-1.930903 5.53288,1.558894 6.92054,6.436341 9.97337,5.249456 2.33834,-0.909354 2.89931,-5.296695 2.84616,-7.487413 0,0 0,-3.489796 0,-3.489796 0.34249,-2.096239 1.91319,-2.550917 3.71419,-3.005594 0.56686,3.578369 1.43488,3.135502 2.52729,5.9049 0.58458,1.476225 0.43106,2.550917 1.45261,4.109811 2.58634,3.962188 3.67284,1.110121 3.69647,7.699989 0,0 6.49539,-3.702372 6.49539,-3.702372 0,0 5.9049,0 5.9049,0 0,0 10.03833,-6.335958 10.03833,-6.335958 -0.4724,2.025381 -0.80898,4.499534 0.54915,6.312338 1.31089,1.741946 10.12099,3.684658 12.34124,2.781208 2.42691,-0.980213 4.16295,-5.113643 10.13872,-7.174453 2.90521,-1.003833 3.35397,-0.08266 5.9049,1.033357 0,0 0,3.54294 0,3.54294 -8.96364,0.501917 -8.42039,7.186264 -11.21931,13.58127 0,0 6.49539,0 6.49539,0 0,0 0,1.77147 0,1.77147 6.35366,0.318865 6.55444,2.639491 6.49539,8.266861 -0.0237,2.03129 -0.70269,4.75344 0.37791,6.44225 1.22822,1.92499 4.10391,2.92292 4.87154,5.39117 0.94479,3.04102 -2.44463,4.22791 -0.30706,6.93826 2.23206,2.82844 6.93826,2.47415 8.01295,6.05842 0.92708,3.08236 0.33659,13.43956 -0.80307,16.33887 -0.92116,2.35605 -3.72008,5.61555 -3.88541,7.25121 0,0 -6.49539,1.77147 -6.49539,1.77147 4.15704,8.78649 11.42007,6.5131 18.89568,5.9049 -0.16534,2.99969 -0.49602,4.12162 -2.48597,6.49539 -1.30499,1.5589 -4.04486,3.90314 -4.42277,5.9049 -0.25982,1.40537 1.19279,3.96809 1.59433,5.9049 0,0 5.9049,-0.59049 5.9049,-0.59049 0,0 -2.60406,4.18658 -2.60406,4.18658 -0.93298,2.6572 0.46057,7.36931 3.21816,8.44991 1.31679,0.51963 5.45022,0.35429 7.06227,0.35429 0,0 0,3.54294 0,3.54294 -5.02507,1.08651 -5.84585,3.36579 -5.9049,8.26686 -0.0827,7.2217 0.91525,5.07821 1.95452,8.9105 0,0 1.05698,5.85175 1.05698,5.85175 0,0 2.10804,4.72392 2.10804,4.72392 0.63773,2.01947 -0.12991,2.5273 0.46058,4.72392 0.46059,1.71242 2.55682,5.94033 3.42484,7.67637 1.5589,3.1296 2.66311,7.64685 5.75729,9.44784 1.07469,5.71595 3.8677,6.69026 5.95804,11.21931 1.39355,3.02331 1.12784,5.63918 1.12784,8.85735 3.07645,-0.065 5.73365,-1.26364 8.26686,0.59049 -3.43075,1.58842 -5.85176,0.84441 -6.72569,3.04103 -1.73604,4.35782 5.03688,7.30435 5.79271,8.99316 1.04517,2.32062 -1.16327,3.41303 -0.85031,6.86149 0.41926,4.70621 2.24386,5.99938 3.07646,7.92437 0.69677,1.61205 0.28933,2.83436 0.80306,4.42278 0,0 1.71242,3.64923 1.71242,3.64923 0,0 1.13374,5.85175 1.13374,5.85175 0,0 3.4898,11.21931 3.4898,11.21931 0,0 1.6829,6.47177 1.6829,6.47177 0,0 2.08442,4.2102 2.08442,4.2102 0,0 2.39149,9.39469 2.39149,9.39469 0,0 3.40712,6.49539 3.40712,6.49539 0.94479,2.59816 0.55507,5.5388 2.21435,10.03833 3.20635,8.70973 4.47591,6.93236 4.58811,16.53372 0,0 0.46648,6.49539 0.46648,6.49539 0,0 -1.59432,8.85735 -1.59432,8.85735 0,0 -0.63773,7.67637 -0.63773,7.67637 0,0 0.61411,4.13343 0.61411,4.13343 0,0 0,4.13343 0,4.13343 0.75583,3.72599 3.59608,4.32239 0,7.67637 -0.86211,-0.54325 -1.31089,-1.04516 -2.39148,-1.19279 -1.03927,-0.14171 -2.02539,0.33658 -2.95245,0.74402 -3.10008,1.38175 -4.46411,2.8875 -4.9365,6.35367 -0.36611,2.18481 0.57277,3.34808 0,4.54677 -0.4783,1.20461 -2.20253,1.57661 -3.33036,1.94862 -0.95069,-1.01564 -2.31473,-2.51548 -3.71419,-2.8875 -1.83052,-0.4901 -3.77913,1.06289 -5.14316,2.10806 -3.21818,2.47415 -6.69617,7.22759 -11.21931,6.54263 -6.18244,-0.93888 -1.63566,-6.52492 -6.50721,-8.90459 -4.12161,-2.01948 -5.74547,3.21226 -11.20749,3.67875 -1.15146,0.0945 -3.34808,0.18305 -4.29877,-0.53145 -1.24594,-0.93888 -1.11603,-3.04692 -3.97991,-4.346 -1.51755,-0.68497 -3.4898,-0.95659 -4.26334,0.89164 -1.38174,3.28312 2.25567,3.83228 4.00943,5.17269 1.37584,1.05698 4.14524,4.4523 3.18865,6.25919 -1.34042,2.5273 -9.32974,3.56657 -11.78027,-0.89754 -7.54056,4.39916 -3.43075,7.83581 -2.36196,14.75635 -1.70652,0.41334 -3.03513,0.80897 -4.72392,0 -1.98996,-0.9684 -4.0862,-3.8559 -6.49539,-4.25153 -4.28106,-0.69678 -3.69057,4.16886 -2.7635,6.61939 1.02745,2.71625 1.31089,2.8875 1.58252,5.9049 -3.89724,-2.33833 -2.78712,-6.17062 -7.0977,-6.95006 -5.45612,-0.99793 -11.49093,2.58043 -15.93141,5.23764 0,0 -5.899,2.79893 -5.899,2.79893 0,0 -4.23972,3.43074 -4.23972,3.43074 0,0 -5.21402,2.83436 -5.21402,2.83436 -4.36963,2.60996 -7.64095,5.62146 -11.21931,9.18211 -1.38176,1.37585 -5.81633,5.20812 -6.3773,6.51902 -1.12193,2.01947 -0.11809,3.56655 0,5.29078 0,0 0.74402,7.67637 0.74402,7.67637 1.03926,5.51518 1.71242,8.36134 6.81426,11.43779 0,0 6.18242,3.06465 6.18242,3.06465 0,0 5.22584,7.33388 5.22584,7.33388 2.48006,2.8934 4.49363,2.82255 5.12546,6.5072 9.21754,-0.20076 8.59162,-4.29286 15.94323,-0.59049 0,0 0,-2.95245 0,-2.95245 4.17475,0.20668 7.4874,1.36994 9.44784,5.31441 -5.19632,3.43075 3.5075,8.11334 6.49539,9.44784 0,0 0,8.26686 0,8.26686 -2.05491,-1.18098 -7.43427,-5.40298 -8.85735,-5.72185 -2.87569,-0.64363 -5.1786,2.43873 -7.72952,3.11189 -2.83435,0.75583 -11.70351,-0.46059 -15.29959,-0.58459 -3.02922,-0.10629 -5.46204,0.0768 -6.49539,3.19455 -12.33534,0 -7.4638,-1.16917 -17.12421,-3.14731 -4.8125,-0.99202 -6.41273,0.124 -11.16617,-3.23589 -0.94478,-0.66725 -7.17446,-7.81808 -8.03066,-8.96954 0,0 -2.30291,-3.53704 -2.30291,-3.53704 -2.37968,-3.00559 -5.68643,-4.48182 -8.56211,-6.89691 -1.86005,-1.5589 -2.91702,-3.27132 -5.36755,-3.99172 -4.59402,-1.35222 -9.54823,-0.41924 -14.17176,-1.10422 -1.69471,-0.248 -4.31648,-0.89754 -5.30261,-2.4151 -0.74992,-1.15736 -0.64953,-3.72009 -0.54915,-5.08412 0.32477,-4.48182 2.65721,-9.93794 6.46586,-12.51248 0,0 5.88129,-2.78121 5.88129,-2.78121 0,0 4.1098,-2.59225 4.1098,-2.59225 2.43873,-1.09831 2.01948,0.59049 5.92853,-2.33243 3.10597,-2.32654 8.55028,-7.48742 10.91224,-10.48711 0,0 4.8125,-7.30435 4.8125,-7.30435 0,0 5.50927,-4.09211 5.50927,-4.09211 0,0 7.10951,-7.47559 7.10951,-7.47559 0,0 7.67637,-6.46587 7.67637,-6.46587 5.21402,-4.77117 8.24323,-5.49747 9.8848,-6.92055 0,0 4.3401,-5.52699 4.3401,-5.52699 1.64746,-1.75965 4.91878,-3.77323 4.45229,-6.48357 -0.30115,-1.71833 -3.76142,-4.66487 -5.09592,-6.51311 1.44079,-1.5707 4.83611,-4.91287 4.80068,-7.08588 -0.0531,-3.18274 -7.99523,-10.46348 -10.70558,-11.45551 0,0 -4.13343,-0.53144 -4.13343,-0.53144 -2.22615,-0.47829 -3.2536,-1.86594 -5.31441,-1.19278 -3.51933,1.14554 -6.15292,6.20014 -6.80836,9.63679 -0.26572,1.39356 -0.17124,3.30674 -0.86211,4.46411 -0.91526,1.52346 -2.63359,2.4151 -4.13933,3.21226 0,-8.95182 1.49984,-9.72536 4.47,-17.7147 0.60231,-1.62384 3.03512,-6.06433 2.93474,-7.09178 -0.13581,-1.38175 -3.70238,-6.24739 -4.71211,-7.67047 -1.64747,-2.33243 -5.33213,-6.90873 -8.53258,-6.70206 -2.95245,0.18896 -1.05107,3.03512 -4.78887,4.3401 0.065,2.99379 0.30115,4.96602 1.71832,7.67637 0.87393,1.67109 2.81663,3.93857 2.20253,5.899 -0.53735,1.70651 -4.55858,5.00735 -6.28281,5.39117 -0.98612,0.32477 -3.02332,0.0118 -4.13343,0 0,0 -0.59049,-6.56625 -0.59049,-6.56625 0,0 -4.72392,2.36196 -4.72392,2.36196 0,0 1.77147,12.40029 1.77147,12.40029 0,0 -10.03833,-0.59049 -10.03833,-0.59049 0.47239,1.3227 1.51755,3.41303 1.48213,4.72392 -0.0531,1.90138 -1.53528,3.23589 -1.94862,5.9049 -0.77945,5.01917 1.75966,12.40619 -5.43841,13.58127 0,0 -2.12577,-3.64332 -2.12577,-3.64332 -1.90729,-3.83228 -2.08443,-7.48151 -6.24148,-10.86501 -2.8993,-2.36196 -11.92199,-1.1928 -12.93763,-5.62738 0,0 0.63773,-5.84585 0.63773,-5.84585 0,0 -4.72392,1.18098 -4.72392,1.18098 0,0 -1.18098,-1.18098 -1.18098,-1.18098 0,0 -0.59049,0 -0.59049,0 0.89754,-3.17092 2.4151,-4.21019 2.61586,-5.88127 0.31296,-2.65131 -4.47591,-4.85974 -6.62529,-3.9681 -1.14556,0.4783 -5.88129,7.65865 -7.31027,9.25888 0,0 -16.43333,14.78588 -16.43333,14.78588 -1.49395,1.42898 -5.32623,5.28488 -6.11158,7.03863 -0.8503,1.91319 0.80307,3.50751 1.18688,5.34393 0.72631,3.51933 0.46649,7.72952 -0.32476,11.21341 -1.37585,6.04662 -1.52347,5.11955 -4.13343,10.08557 0,0 -1.23413,2.68674 -1.23413,2.68674 -1.03926,1.51755 -2.39148,1.75374 -3.93266,4.36371 -1.07469,1.82461 -3.43075,10.61111 -3.54885,12.73097 0,0 0,2.63359 0,2.63359 0.0827,1.97813 -0.40744,2.97016 0,5.29078 0.45468,2.75759 2.2793,5.56833 3.30084,8.26686 0,0 1.78919,5.73956 1.78919,5.73956 1.09241,2.00176 4.12752,4.41687 4.53496,6.66073 0.29525,1.60613 -0.98612,3.31855 -1.67699,4.72392 -0.93888,1.90729 -2.06081,4.95421 -2.049,7.08588 0.0295,4.04486 3.46618,6.87921 4.22201,9.02269 0.8503,2.42691 0.89164,9.99699 0.89164,12.82544 0,0 -8.26686,0.87393 -8.26686,0.87393 -2.45054,0.51963 -3.44257,1.5648 -5.31441,1.64156 0,0 -10.62882,-2.56863 -10.62882,-2.56863 0,0 -11.21931,0 -11.21931,0 0,0 -23.6196,0 -23.6196,0 -9.73127,0.17124 -15.20512,2.92883 -18.89567,3.33627 -1.77738,0.17715 -6.02892,0.44286 -7.65276,0 -2.043104,-0.53144 -2.822544,-1.925 -4.771164,-1.93681 -2.2911,-0.0118 -2.36196,1.4467 -7.06226,1.60613 0,-1.58251 -0.16534,-5.71003 0.35429,-6.98549 2.049,-5.02507 12.754584,-7.64685 14.343004,-8.7924 2.73988,-1.97223 1.62976,-3.63742 5.37938,-6.66073 1.90137,1.88366 3.83818,4.06257 6.49539,4.83021 2.85206,0.82669 5.75136,-0.4842 8.26685,-1.73604 7.80627,-3.87952 10.26862,-7.44607 16.53372,-12.68963 0,0 11.29016,-8.76878 11.29016,-8.76878 2.56273,-3.28312 2.32063,-6.06432 2.79302,-9.97928 0.87983,-7.40474 0.38382,-12.23495 -1.52347,-19.48617 -1.39945,-5.3026 -3.80275,-10.38082 -3.69056,-15.94323 0.0708,-3.67875 1.5707,-9.14079 2.30882,-12.99078 0.25391,-1.3286 1.2046,-3.90904 0.56096,-5.06049 -0.64954,-1.15737 -2.30291,-1.35813 -3.47207,-1.57661 -4.06848,-0.76174 -3.72599,-0.37201 -7.67637,-2.22025 0,0 0,-1.18098 0,-1.18098 0,0 8.26686,-3.27131 8.26686,-3.27131 0,0 3.92675,-1.63566 3.92675,-1.63566 0,0 -1.56479,-8.08381 -1.56479,-8.08381 -4.10982,-0.7322 -6.35368,-0.8444 -6.49539,-5.31441 2.07262,0.0295 5.81632,0.34839 7.64684,-0.43105 2.23205,-0.94479 3.05283,-3.55475 4.56448,-5.45022 3.48981,-4.36373 7.07407,-4.9247 9.04632,-11.83343 -3.41894,-0.92116 -7.08588,-2.49777 -10.62882,-2.91702 -6.82017,-0.80307 -1.93681,6.83788 -4.90697,9.43604 -1.61205,1.40535 -5.94034,3.17682 -8.08381,2.56272 -2.17891,-0.63183 -2.07854,-1.77738 -5.9049,-2.58635 0,0 -1.18098,-5.31441 -1.18098,-5.31441 -1.69471,0.84441 -3.21227,1.47032 -4.42277,3.0174 -3.19455,4.07438 0.64363,11.52638 0.8562,16.46877 0.0768,1.6829 0.18305,4.20429 -1.00383,5.52109 -3.11188,3.46026 -11.70941,0.0237 -13.13249,-2.20844 -0.61411,-0.9625 -0.57868,-2.21433 -0.69087,-3.31265 0,0 0,-12.96715 0,-12.96715 0,0 -1.38765,-3.14142 -1.38765,-3.14142 -0.46649,-1.46441 -0.12991,-3.08235 -1.24003,-4.07438 -0.75583,-0.67315 -2.74578,-0.85621 -3.77913,-1.07469 -2.4033,6.40682 0.98611,11.65037 -1.48214,15.15788 -1.52346,2.1612 -6.05252,2.92292 -7.72361,0.61411 -1.730144,-2.40919 -2.379684,-8.16648 -1.700614,-11.04807 0,0 1.783284,-4.72392 1.783284,-4.72392 0.90345,-2.95835 0.47239,-4.42867 2.24386,-7.67637 0,0 4.82431,-7.08588 4.82431,-7.08588 1.62975,-2.78121 1.37584,-3.83818 2.25567,-5.73956 1.42898,-3.09416 1.91318,-1.87776 2.1612,-6.07024 0,0 1.77147,0 1.77147,0 0,-2.62768 -0.0531,-6.21786 0.86801,-8.69201 1.36993,-3.69647 3.17684,-3.6197 3.26542,-8.4322 0.0472,-2.69263 -0.27754,-7.51103 0.87391,-9.87299 0,0 3.90905,-4.88926 3.90905,-4.88926 0,0 4.48182,-7.68227 4.48182,-7.68227 0.68496,-0.51373 1.19869,-0.45468 1.95452,-0.58459 0,0 2.19662,-10.62882 2.19662,-10.62882 0,0 3.79685,-27.75303 3.79685,-27.75303 0,0 2.03719,-14.76225 2.03719,-14.76225 0,0 -2.00176,-4.13343 -2.00176,-4.13343 0,0 0.99202,-7.51693 0.99202,-7.51693 0,0 -7.61141,-5.47385 -7.61141,-5.47385 0,0 0.59049,-3.54294 0.59049,-3.54294 1.41717,0 5.27307,0.14763 6.4009,-0.34839 2.68674,-1.19279 0.42516,-2.62768 -1.08649,-3.19455 1.52345,-3.34807 2.87568,-4.61763 6.49539,-5.31441 -2.86979,-3.76141 -7.88305,-5.98166 -8.26686,-10.62882 2.75167,0.13582 4.18066,0.33658 6.49539,2.00767 1.04516,0.75583 3.21226,2.94064 4.44048,2.99969 1.6888,0.0827 2.173,-2.58045 2.20843,-3.82638 0.13582,-5.37936 -4.06257,-6.19424 -4.87744,-11.21931 5.87537,0.14763 6.2769,2.43282 8.84553,2.10215 3.63742,-0.4783 2.58044,-4.03305 1.49985,-6.23558 0,0 -2.60406,-6.49539 -2.60406,-6.49539 -1.68881,-3.57246 -4.74755,-5.38527 0.52554,-8.85735 0.96249,3.35989 4.81839,9.28841 8.85735,8.69792 1.83052,-0.26572 5.14907,-3.28903 6.49539,-4.58811 2.46824,-2.38558 11.22521,-13.06754 12.44161,-15.91961 0.5964,-1.39945 0.53735,-2.6513 0.54917,-4.13343 0.0177,-2.99969 -0.26573,-5.98756 3.12369,-7.34569 1.39945,-0.56688 3.1355,-0.065 5.01916,-1.44671 1.83643,-1.34631 1.99585,-3.08235 2.99969,-4.44048 0,0 2.44463,-2.7694 2.44463,-2.7694 0.87393,-1.31679 1.5766,-3.07055 1.23413,-4.66487 -0.46649,-2.16119 -2.68674,-4.36372 -1.49395,-6.83197 0.79126,-1.62975 2.93474,-1.42308 5.56833,-2.92883 3.36579,-1.91909 4.97782,-4.26924 5.9049,-7.9539 0,0 -11.8098,-8.85735 -11.8098,-8.85735 0,0 1.77147,-3.54294 1.77147,-3.54294 0,0 17.7147,4.72392 17.7147,4.72392 -0.065,-6.54853 -2.31473,-7.7118 -5.45614,-12.99078 0,0 -2.55091,-4.55268 -2.55091,-4.55268 0,0 -2.69264,-3.38351 -2.69264,-3.38351 0,0 -1.03926,-3.84999 -1.03926,-3.84999 -1.26365,-3.25951 -2.26748,-1.75376 -2.43281,-6.51901 4.56448,-0.66135 5.11954,1.06288 8.26686,4.12752 0,0 5.4266,4.91879 5.4266,4.91879 2.8934,3.69056 3.39531,6.79063 8.74516,8.97544 4.39324,1.79509 6.28281,0.86212 8.20781,-3.2595 0.47829,-1.02155 1.08059,-2.2852 0.77944,-3.44256 -0.35429,-1.35812 -3.64923,-3.96218 -4.85382,-5.41479 4.18657,-2.20843 6.45995,-0.83259 10.62882,0.33658 3.07645,0.86211 5.29669,1.64747 7.08588,-1.51756 0,0 2.36196,0 2.36196,0 5.01326,-0.0945 5.56241,-2.69854 2.70443,-6.49539 -2.56862,-3.42484 -10.82368,-9.276599 -8.25504,-14.579199 0.95659,-1.972236 4.9483,-1.358127 6.73159,-1.116026 7.25712,0.992023 10.88272,2.143479 17.7147,4.552678 2.22614,0.932974 6.65481,3.448462 7.77084,0 1.81281,-5.9049 -9.65451,-8.538485 -11.85113,-10.020615 -3.30084,-2.226148 -4.32239,-6.141096 -5.82814,-9.518699 0,0 -1.65337,-3.141407 -1.65337,-3.141407 -0.50782,-1.186885 -0.57868,-2.155289 -1.34041,-3.365793 -2.06082,-3.283125 -5.20812,-3.082358 -8.01296,-5.267171 -2.68672,-2.090335 -3.41302,-2.580441 -2.70443,-5.963949 z M 205.85507,214.86106 c -6.54854,1.54118 -11.33151,5.92853 -16.53372,9.89662 0,0 -8.69793,5.34393 -8.69793,5.34393 -1.30498,1.05107 -2.04309,2.84025 -2.97016,4.24562 -2.73397,4.15706 -4.14524,4.77116 -4.27514,10.03833 -0.7145,0.25982 -1.12784,0.21258 -1.6711,0.92707 -1.65337,2.18482 -0.13581,9.2825 -0.32476,12.06371 -0.16534,2.45054 -2.2793,6.17063 -3.6197,8.26686 -4.48773,7.01502 -3.73781,6.21787 -6.79064,13.58127 0,0 -1.98405,4.72392 -1.98405,4.72392 0,0 -0.77354,3.54294 -0.77354,3.54294 0,0 -1.39356,4.13343 -1.39356,4.13343 0,0 -1.32269,11.21931 -1.32269,11.21931 -0.64364,4.75345 -1.60023,9.34746 -1.56481,14.17176 0,0 0,8.85735 0,8.85735 -0.3661,1.94862 -2.69853,4.53497 -2.297,8.26096 0.23619,2.173 1.35812,2.66901 2.1671,4.23972 1.08651,2.11395 0.38973,3.29493 2.62768,6.28281 2.13758,2.85797 6.33005,1.8069 9.2707,3.24769 1.74194,0.86212 2.59225,2.08444 3.79094,2.78121 1.30498,0.75583 2.26157,0.46649 3.58428,1.52346 2.25567,1.801 1.9368,3.64333 6.79654,5.55061 4.06256,-7.32798 1.80689,-15.21692 1.77147,-23.02911 0,0 0,-8.26686 0,-8.26686 0,0 2.26747,-20.07666 2.26747,-20.07666 0,0 1.26956,-12.99078 1.26956,-12.99078 0,0 0,-4.1098 0,-4.1098 0.29525,-1.45852 0.65545,-1.88367 1.29317,-3.13551 2.66312,-5.24945 4.67669,-2.38558 10.51663,-6.78473 4.02714,-3.04102 8.52667,-10.77054 10.42805,-15.49446 2.25567,-5.60375 -0.59639,-6.92644 -0.94478,-10.62882 0,0 -2.34425,-15.94323 -2.34425,-15.94323 0,0 0,-11.21931 0,-11.21931 0,0 1.72424,0 1.72424,0 0,0 0,-11.21931 0,-11.21931 z m 160.61328,30.70548 c -2.85208,-1.78918 -3.39533,-6.47176 -4.88336,-9.44784 -2.72806,-5.45612 -10.89454,-15.57713 -16.96477,-17.00611 -2.14349,-0.50191 -6.33006,1.50575 -8.26686,2.5332 -4.02715,2.13757 -8.13696,5.11955 -10.41625,9.1585 -1.35813,2.4033 -1.61794,4.62945 -2.56273,7.08588 0,0 -2.00176,4.13343 -2.00176,4.13343 0,0 -1.13964,2.86388 -1.13964,2.86388 -2.20844,3.60789 -9.80213,0.44877 -12.90812,3.93266 -1.01564,1.13965 -1.23412,3.19455 -3.17093,5.55061 0,0 -3.35989,3.30674 -3.35989,3.30674 -1.12193,1.38766 -6.56625,11.11303 -6.69025,12.68963 -0.28343,3.51342 2.82845,4.05077 4.22791,8.85735 2.35016,8.08381 2.00177,13.10297 2.00177,21.25764 2.30881,0.67316 7.71769,3.24179 8.88096,5.4207 0.53735,1.27546 -0.0354,3.56065 0,5.20812 0,0 0.53735,5.31441 0.53735,5.31441 -0.17125,3.93267 -1.31089,2.82254 -0.56096,7.67637 6.54853,1.97224 2.91111,7.29846 4.48772,11.11893 1.47032,3.56066 6.8674,4.74754 10.27453,4.8243 -0.005,4.73573 0.0177,6.12338 -4.72392,8.26686 0.27752,7.948 7.22169,6.05253 12.76048,12.99668 0,0 2.48006,4.12753 2.48006,4.12753 0,0 3.93266,5.31441 3.93266,5.31441 0,0 2.88159,5.9049 2.88159,5.9049 0,0 2.80484,4.13343 2.80484,4.13343 0,0 2.58043,5.31441 2.58043,5.31441 0,0 6.63711,8.26686 6.63711,8.26686 0,0 3.09417,4.5704 3.09417,4.5704 1.03336,1.29317 5.62146,5.07821 7.12131,5.82222 2.35015,1.15737 5.12546,1.68291 7.67047,0.94479 1.44079,-0.41334 3.38941,-1.58842 4.70029,-1.64157 2.71035,-0.11809 3.45437,3.17684 5.92853,3.37171 1.61203,0.124 2.71035,-1.32861 3.60199,-2.45054 0,0 2.60406,-3.52523 2.60406,-3.52523 1.84823,-2.28519 4.42867,-3.71418 3.64331,-7.09178 -0.63182,-2.72806 -3.67284,-4.56448 -5.5506,-6.54853 -3.93266,-4.15705 -6.71977,-7.02684 -9.02268,-12.34715 -3.86772,1.13965 -6.06434,2.60406 -7.76495,6.25329 -0.42515,0.91526 -0.83259,1.5648 -0.80306,2.62769 0.0354,1.32859 2.52729,6.82605 3.2536,8.24323 0,0 -0.59049,0.59049 -0.59049,0.59049 0,0 -3.54294,-0.93298 -3.54294,-0.93298 -2.33835,-0.93296 -5.46794,-4.32238 -6.19424,-6.74339 -0.6023,-2.00176 0.0177,-4.52905 -0.64364,-6.49539 0,0 -2.14939,-4.13343 -2.14939,-4.13343 -1.10421,-3.59018 1.62976,-5.64508 4.85384,-5.9049 0,0 0,1.77147 0,1.77147 1.71832,0 4.17475,0.26573 5.52698,-0.94478 1.51756,-1.36403 2.31472,-5.71004 5.69823,-6.94416 4.09209,-1.73014 8.36133,0.43696 12.39439,0 5.21992,-0.33068 9.57774,-3.41894 13.58127,-6.53082 1.27545,-0.99793 3.36579,-2.53321 4.12161,-3.93857 1.4408,-2.68673 0.12401,-8.34363 -0.66725,-11.16617 0,0 -4.01533,-10.62882 -4.01533,-10.62882 0,0 -2.04309,-6.44224 -2.04309,-6.44224 0,0 -3.726,-5.36756 -3.726,-5.36756 -1.2105,-2.06671 -3.40712,-6.48949 -5.08412,-7.88304 -2.11986,-1.76556 -6.97959,-1.77737 -9.84346,-2.15529 0,0 4.13343,-8.26686 4.13343,-8.26686 -3.07055,-1.42308 -3.80276,-1.18098 -7.08588,-1.18098 -0.36611,4.00352 -0.95069,6.1411 -5.31441,6.49539 0.58458,-3.54884 3.43665,-5.22583 2.10804,-9.37107 -0.76173,-2.37378 -3.63151,-1.87186 -5.65098,-1.84824 -3.95629,0.0472 -7.62323,1.37585 -11.21931,2.95245 2.70443,-9.25888 9.94384,-8.74516 12.40029,-19.48617 -6.00529,-2.19072 -9.37699,-1.0865 -14.17176,2.95245 0.59639,-7.37522 7.51693,-6.05252 11.76846,-9.68994 3.59608,-3.08236 0.19486,-6.48358 -2.91111,-8.02476 0,0 0.59049,-2.36196 0.59049,-2.36196 6.59576,1.49395 4.72392,-2.34424 4.72392,-9.44784 0,0 -1.77147,0 -1.77147,0 0,0 -0.59049,-5.9049 -0.59049,-5.9049 z M 173.96861,361.30258 c -4.66487,1.93091 -6.30644,-1.14555 -9.18803,0.58459 -1.98405,1.19869 -2.58635,3.17683 -1.96043,5.32031 0.78535,2.68083 3.68466,7.42837 5.05459,10.03833 1.25775,2.39149 1.41718,3.67876 3.14142,5.9049 3.97399,-5.41479 3.17683,-4.02714 5.71593,-9.98518 0.99203,-2.33244 1.51756,-1.77147 1.96044,-4.78297 0.21257,-1.26955 0.76173,-3.90314 0,-4.95422 -0.65545,-0.8562 -2.7635,-1.02744 -4.72392,-2.12576 z m -10.03833,16.53372 c 0,0 -2.95245,0 -2.95245,0 0,0 2.95245,2.36196 2.95245,2.36196 0,0 0,-2.36196 0,-2.36196 z m 84.44007,5.9049 c -3.78504,0.98612 -3.70238,1.51756 -5.5329,4.67078 -1.34632,2.32653 -2.99969,2.99378 -3.2536,5.95804 -0.96249,11.23703 15.59484,7.78856 15.60665,-0.56686 0.005,-3.01741 -2.72216,-2.45645 -4.1039,-3.90906 -1.0747,-1.12783 -0.92707,-2.94063 -0.94478,-4.38143 0,0 -1.77147,-1.77147 -1.77147,-1.77147 z m -18.30519,15.35274 c 4.87744,-0.40153 4.64715,-3.7437 0,-4.13343 0,0 0,4.13343 0,4.13343 z m 5.9049,3.56066 c 0.44876,0.76764 0.7263,1.44079 1.42308,2.07852 3.07054,2.81664 5.73365,-1.62975 0.92706,-2.07852 0,0 -2.35014,0 -2.35014,0 z m 14.17176,10.02061 c -0.27754,-3.47799 -1.41128,-3.77914 -4.72392,-4.13343 0.124,3.82638 0.82668,4.55268 4.72392,4.13343 z m 82.6686,105.10722 c 0,0 -3.54294,0 -3.54294,0 0,0 0,3.54294 0,3.54294 2.69263,-0.46058 2.96425,-0.90935 3.54294,-3.54294 z m 8.85735,0.59049 c 0,0 -2.95245,0 -2.95245,0 0,0 0,2.95245 0,2.95245 2.36196,-0.41334 2.5391,-0.59049 2.95245,-2.95245 z m -8.26686,8.26686 c -2.62178,0.21848 -3.07646,0.28344 -3.54294,2.95245 0,0 3.54294,1.18098 3.54294,1.18098 0,0 0,-4.13343 0,-4.13343 z"
     style="fill:#000000;stroke:none" />
</svg>
